<?xml version="1.0" encoding="UTF-8" standalone="no"?>
<svg width="963px" height="131px" viewBox="0 0 963 131" version="1.1" xmlns="http://www.w3.org/2000/svg" xmlns:xlink="http://www.w3.org/1999/xlink" xmlns:sketch="http://www.bohemiancoding.com/sketch/ns">
    <!-- Generator: Sketch 3.3.3 (12081) - http://www.bohemiancoding.com/sketch -->
    <title>Sprite</title>
    <desc>Created with Sketch.</desc>
    <defs></defs>
    <g id="Page-2-Copy" stroke="none" stroke-width="1" fill="none" fill-rule="evenodd" sketch:type="MSPage">
        <g id="Sprite" sketch:type="MSArtboardGroup">
            <g id="top-logo" sketch:type="MSLayerGroup" transform="translate(21.000000, 23.000000)" fill="#FFFFFF">
                <g id="izi.TRAVEL" transform="translate(0.035714, 3.000000)" sketch:type="MSShapeGroup">
                    <path d="M30.9433059,9.80090708 C29.5126808,9.80090708 28.348647,10.9414381 28.348647,12.3434735 C28.348647,13.7455088 29.5126808,14.8860398 30.9433059,14.8860398 C32.373931,14.8860398 33.5379649,13.7455088 33.5379649,12.3434735 C33.5379649,10.9414381 32.373931,9.80090708 30.9433059,9.80090708 M30.9433059,10.782677 C31.8228674,10.782677 32.5360803,11.4814381 32.5360803,12.3434735 C32.5360803,13.2055088 31.8228674,13.9042699 30.9433059,13.9042699 C30.063609,13.9042699 29.3505316,13.2055088 29.3505316,12.3434735 C29.3505316,11.4814381 30.063609,10.782677 30.9433059,10.782677" id="Fill-35"></path>
                    <path d="M37.9807189,14.8930752 L37.9807189,2.79245575 L33.5380732,2.79245575 L33.5380732,0.00165929204 L45.6584927,0.00165929204 L45.6584927,2.79245575 L41.2387403,2.79245575 L41.2387403,14.8930752 L37.9807189,14.8930752 Z" id="Fill-36"></path>
                    <path d="M56.6408465,4.7795177 C56.6408465,3.55150885 55.6609069,2.7924823 54.3852515,2.7924823 L50.9679256,2.7924823 L50.9679256,6.81115487 L54.3852515,6.81115487 C55.6609069,6.81115487 56.6408465,6.05199558 56.6408465,4.7795177 L56.6408465,4.7795177 Z M56.322102,14.8931018 L53.3371741,9.60181858 L50.9679256,9.60181858 L50.9679256,14.8931018 L47.7323911,14.8931018 L47.7323911,0.00168584071 L54.8410846,0.00168584071 C58.0076685,0.00168584071 59.9670058,2.03332301 59.9670058,4.80181858 C59.9670058,7.41394248 58.2584106,8.84279204 56.6178178,9.22230531 L60.058037,14.8931018 L56.322102,14.8931018 Z" id="Fill-37"></path>
                    <path d="M68.6712101,3.17202212 L66.3014198,9.57954425 L71.0404586,9.57954425 L68.6712101,3.17202212 Z M72.8861424,14.8931283 L71.9292315,12.370208 L65.4131887,12.370208 L64.4562778,14.8931283 L60.7882098,14.8931283 L66.6433285,0.00171238938 L70.6986853,0.00171238938 L76.5542104,14.8931283 L72.8861424,14.8931283 Z" id="Fill-38"></path>
                    <path d="M79.9038319,14.8930752 L74.0483068,0.00165929204 L77.7162394,0.00165929204 L81.9313071,11.4324558 L86.1462394,0.00165929204 L89.814172,0.00165929204 L83.9591887,14.8930752 L79.9038319,14.8930752 Z" id="Fill-39"></path>
                    <path d="M91.2280132,14.8930752 L91.2280132,0.00165929204 L101.981746,0.00165929204 L101.981746,2.79245575 L94.4631413,2.79245575 L94.4631413,5.91803097 L101.822035,5.91803097 L101.822035,8.70882743 L94.4631413,8.70882743 L94.4631413,12.1022788 L101.981746,12.1022788 L101.981746,14.8930752 L91.2280132,14.8930752 Z" id="Fill-40"></path>
                    <path d="M104.37443,14.8930752 L104.37443,0.00165929204 L107.632451,0.00165929204 L107.632451,12.1022788 L114.057598,12.1022788 L114.057598,14.8930752 L104.37443,14.8930752 Z" id="Fill-41"></path>
                    <path d="M4.68187335,13.0317212 L6.49165948,13.4448186 L6.26286241,14.8862788 L1.81357909,14.8862788 L0.231912713,14.8862788 L0.00230287156,13.4448186 L1.81357909,13.0218982 L1.81357909,7.40778319 C1.81357909,7.40778319 0.31576433,7.37605752 0.235841141,7.36689823 L0.00379296493,5.90220796 L3.38129277,4.83999558 L4.68214428,4.83999558 L4.68214428,4.98973009 L4.68187335,13.0317212 Z M4.66954622,1.55605752 C4.66954622,2.41543805 3.95863622,3.11207522 3.08164854,3.11207522 C2.20466087,3.11207522 1.49375087,2.41543805 1.49375087,1.55605752 C1.49375087,0.696676991 2.20466087,3.98230088e-05 3.08164854,3.98230088e-05 C3.95863622,3.98230088e-05 4.66954622,0.696676991 4.66954622,1.55605752 L4.66954622,1.55605752 Z" id="Fill-42"></path>
                    <path d="M16.2717383,13.0704425 L16.0105655,14.8862389 L7.94387738,14.8862389 L7.74772691,13.5169912 L12.8733772,6.73300885 L9.85905374,6.73300885 L9.43722186,8.50646018 L7.9664997,8.28252212 L7.96609332,6.73300885 L8.21683539,4.98982301 L15.8343281,4.98982301 L16.0303431,6.51252212 L11.2772162,13.0687168 L14.3797261,13.0687168 L14.8014225,11.2952655 L16.2724156,11.519469 L16.2717383,13.0704425 Z" id="Fill-43"></path>
                    <path d="M22.2757173,13.0317212 L24.0855034,13.4448186 L23.8567063,14.8862788 L19.407423,14.8862788 L17.8257566,14.8862788 L17.5961468,13.4448186 L19.407423,13.0218982 L19.407423,7.40778319 C19.407423,7.40778319 17.9096083,7.37605752 17.8296851,7.36689823 L17.5976369,5.90220796 L20.9751367,4.83999558 L22.2759882,4.83999558 L22.2759882,4.98973009 L22.2757173,13.0317212 Z M22.2633901,1.55605752 C22.2633901,2.41543805 21.5524801,3.11207522 20.6754925,3.11207522 C19.7985048,3.11207522 19.0875948,2.41543805 19.0875948,1.55605752 C19.0875948,0.696676991 19.7985048,3.98230088e-05 20.6754925,3.98230088e-05 C21.5524801,3.98230088e-05 22.2633901,0.696676991 22.2633901,1.55605752 L22.2633901,1.55605752 Z" id="Fill-44"></path>
                </g>
                <path d="M125.035714,0 L225.035714,0 L225.035714,22 L125.035714,22 L125.035714,0 Z M142.784714,17 L137.806714,4.327 L135.032714,4.327 L130.054714,17 L132.581714,17 L133.512714,14.568 L139.326714,14.568 L140.257714,17 L142.784714,17 Z M138.699714,12.611 L134.139714,12.611 L136.419714,6.569 L138.699714,12.611 Z M149.586714,17.228 C152.151714,17.228 153.709714,15.898 154.678714,14.378 L152.778714,13.409 C152.170714,14.473 150.954714,15.252 149.586714,15.252 C147.078714,15.252 145.216714,13.333 145.216714,10.673 C145.216714,8.013 147.078714,6.094 149.586714,6.094 C150.954714,6.094 152.170714,6.892 152.778714,7.937 L154.678714,6.968 C153.728714,5.448 152.151714,4.118 149.586714,4.118 C145.843714,4.118 142.936714,6.778 142.936714,10.673 C142.936714,14.568 145.843714,17.228 149.586714,17.228 L149.586714,17.228 Z M167.769714,17 L162.791714,4.327 L160.017714,4.327 L155.039714,17 L157.566714,17 L158.497714,14.568 L164.311714,14.568 L165.242714,17 L167.769714,17 Z M163.684714,12.611 L159.124714,12.611 L161.404714,6.569 L163.684714,12.611 Z M173.868714,17 C177.820714,17 180.499714,14.397 180.499714,10.673 C180.499714,6.949 177.820714,4.327 173.868714,4.327 L169.156714,4.327 L169.156714,17 L173.868714,17 Z M173.868714,15.043 L171.379714,15.043 L171.379714,6.284 L173.868714,6.284 C176.699714,6.284 178.219714,8.222 178.219714,10.673 C178.219714,13.067 176.623714,15.043 173.868714,15.043 L173.868714,15.043 Z M191.329714,17 L191.329714,15.043 L184.869714,15.043 L184.869714,11.528 L191.196714,11.528 L191.196714,9.571 L184.869714,9.571 L184.869714,6.284 L191.329714,6.284 L191.329714,4.327 L182.646714,4.327 L182.646714,17 L191.329714,17 Z M206.776714,17 L206.776714,4.327 L203.641714,4.327 L200.183714,12.668 L196.744714,4.327 L193.609714,4.327 L193.609714,17 L195.832714,17 L195.832714,7.595 L199.708714,17 L200.658714,17 L204.553714,7.595 L204.553714,17 L206.776714,17 Z M215.288714,17 L215.288714,11.737 L220.190714,4.327 L217.644714,4.327 L214.186714,9.761 L210.690714,4.327 L208.144714,4.327 L213.065714,11.737 L213.065714,17 L215.288714,17 Z" id="Rectangle-97" sketch:type="MSShapeGroup"></path>
            </g>
            <path d="M21.3942508,70.8283367 L50.9621227,70.8283367 L50.9621227,91.960772 L72.6624282,70.2604665 L118.800407,70.2604665" id="Path-251" stroke="#FFFFFF" stroke-width="3" sketch:type="MSShapeGroup"></path>
            <path d="M308.32128,35.20056 L297.12072,24 L296.44176,24.67872 L307.16256,35.39928 L285,35.39928 L285,36.35928 L307.16256,36.35928 L296.44176,47.07984 L297.12072,47.75856 L308.32128,36.558 L309,35.87928 L308.32128,35.20056 Z" id="Shape-Copy-7" stroke="#FFFFFF" fill="#FFFFFF" sketch:type="MSShapeGroup" transform="translate(297.000000, 35.879280) rotate(90.000000) translate(-297.000000, -35.879280) "></path>
            <path d="M308.32128,83.20056 L297.12072,72 L296.44176,72.67872 L307.16256,83.39928 L285,83.39928 L285,84.35928 L307.16256,84.35928 L296.44176,95.07984 L297.12072,95.75856 L308.32128,84.558 L309,83.87928 L308.32128,83.20056 Z" id="Shape-Copy-8" stroke="#54657E" fill="#54657E" sketch:type="MSShapeGroup" transform="translate(297.000000, 83.879280) rotate(90.000000) translate(-297.000000, -83.879280) "></path>
            <path d="M504.33936,42.60028 L509.93964,37 L509.60028,36.66052 L504.24,42.02092 L504.24,30.93964 L503.76,30.93964 L503.76,42.02092 L498.39972,36.66052 L498.06036,37 L503.66064,42.60028 L504,42.93964 L504.33936,42.60028 Z" id="Shape-Copy-14" stroke="#54657E" fill="#54657E" sketch:type="MSShapeGroup"></path>
            <path d="M533.66064,31.279 L528.06036,36.87928 L528.39972,37.21876 L533.76,31.85836 L533.76,42.93964 L534.24,42.93964 L534.24,31.85836 L539.60028,37.21876 L539.93964,36.87928 L534.33936,31.279 L534,30.93964 L533.66064,31.279 Z" id="Shape-Copy-15" stroke="#54657E" fill="#54657E" sketch:type="MSShapeGroup"></path>
            <path d="M504.33936,82.60028 L509.93964,77 L509.60028,76.66052 L504.24,82.02092 L504.24,70.93964 L503.76,70.93964 L503.76,82.02092 L498.39972,76.66052 L498.06036,77 L503.66064,82.60028 L504,82.93964 L504.33936,82.60028 Z" id="Shape-Copy-17" stroke="#FFFFFF" fill="#FFFFFF" sketch:type="MSShapeGroup"></path>
            <path d="M533.66064,71.279 L528.06036,76.87928 L528.39972,77.21876 L533.76,71.85836 L533.76,82.93964 L534.24,82.93964 L534.24,71.85836 L539.60028,77.21876 L539.93964,76.87928 L534.33936,71.279 L534,70.93964 L533.66064,71.279 Z" id="Shape-Copy-16" stroke="#FFFFFF" fill="#FFFFFF" sketch:type="MSShapeGroup"></path>
            <g id="exp" sketch:type="MSLayerGroup" transform="translate(556.000000, 70.000000)">
                <rect id="Rectangle-345" fill="#CB486F" sketch:type="MSShapeGroup" x="0.303571429" y="0" width="20" height="20" rx="3"></rect>
                <path d="M5.71357143,14.41 L10.3035714,9.83 L14.8935714,14.41 L16.3035714,13 L10.3035714,7 L4.30357143,13 L5.71357143,14.41 L5.71357143,14.41 Z" id="Shape-Copy-20" stroke="#FFFFFF" fill="#FFFFFF" sketch:type="MSShapeGroup" transform="translate(10.303571, 10.705000) rotate(-180.000000) translate(-10.303571, -10.705000) "></path>
            </g>
            <g id="exp2" sketch:type="MSLayerGroup" transform="translate(587.000000, 70.000000)">
                <rect id="Rectangle-345-Copy" fill="#CB486F" sketch:type="MSShapeGroup" x="0.303571429" y="0" width="20" height="20" rx="3"></rect>
                <path d="M16.3035714,5.20857143 L15.095,4 L10.3035714,8.79142857 L5.51214286,4 L4.30357143,5.20857143 L9.095,10 L4.30357143,14.7914286 L5.51214286,16 L10.3035714,11.2085714 L15.095,16 L16.3035714,14.7914286 L11.5121429,10 L16.3035714,5.20857143 L16.3035714,5.20857143 Z" id="Shape-Copy-21" stroke="#FFFFFF" fill="#FFFFFF" sketch:type="MSShapeGroup"></path>
            </g>
            <polygon id="Triangle-1" stroke="#FFFFFF" stroke-width="2" stroke-linejoin="round" sketch:type="MSShapeGroup" transform="translate(355.000000, 36.000000) rotate(90.000000) translate(-355.000000, -36.000000) " points="355 30 367 42 343 42 "></polygon>
            <polygon id="Triangle-1-Copy" stroke="#54657E" stroke-width="2" stroke-linejoin="round" sketch:type="MSShapeGroup" transform="translate(355.000000, 84.000000) rotate(90.000000) translate(-355.000000, -84.000000) " points="355 78 367 90 343 90 "></polygon>
            <path d="M404.41,39.41 L409,34.83 L413.59,39.41 L415,38 L409,32 L403,38 L404.41,39.41 L404.41,39.41 Z" id="Shape" fill="#FFFFFF" sketch:type="MSShapeGroup"></path>
            <path d="M434.41,39.41 L439,34.83 L443.59,39.41 L445,38 L439,32 L433,38 L434.41,39.41 L434.41,39.41 Z" id="Shape-Copy-2" fill="#FFFFFF" sketch:type="MSShapeGroup" transform="translate(439.000000, 35.705000) rotate(180.000000) translate(-439.000000, -35.705000) "></path>
            <path d="M436,88.4509756 L440.58,83.9268293 L436,79.3928049 L437.41,78 L443.41,83.9268293 L437.41,89.8536585 L436,88.4509756 L436,88.4509756 Z" id="Shape-Copy-5" opacity="0.599999964" fill="#54657E" sketch:type="MSShapeGroup" transform="translate(439.705000, 83.926829) rotate(-270.000000) translate(-439.705000, -83.926829) "></path>
            <path d="M406,88.4509756 L410.58,83.9268293 L406,79.3928049 L407.41,78 L413.41,83.9268293 L407.41,89.8536585 L406,88.4509756 L406,88.4509756 Z" id="Shape-Copy-6" opacity="0.599999964" fill="#54657E" sketch:type="MSShapeGroup" transform="translate(409.705000, 83.926829) rotate(-90.000000) translate(-409.705000, -83.926829) "></path>
            <path d="M464.41,40.41 L469,35.83 L473.59,40.41 L475,39 L469,33 L463,39 L464.41,40.41 L464.41,40.41 Z" id="Shape-Copy-9" fill="#54657E" sketch:type="MSShapeGroup" transform="translate(469.000000, 36.705000) rotate(-90.000000) translate(-469.000000, -36.705000) "></path>
            <path d="M568.729412,34.7529412 C567.715807,34.7529412 566.894118,35.5746303 566.894118,36.5882353 C566.894118,37.6018402 567.715807,38.4235294 568.729412,38.4235294 C569.743017,38.4235294 570.564706,37.6018402 570.564706,36.5882353 C570.564706,35.5746303 569.743017,34.7529412 568.729412,34.7529412 L568.729412,34.7529412 Z M568.729412,39.6470588 C567.04007,39.6470588 565.670588,38.2775769 565.670588,36.5882353 C565.670588,34.8988937 567.04007,33.5294118 568.729412,33.5294118 C570.418753,33.5294118 571.788235,34.8988937 571.788235,36.5882353 C571.788235,38.2775769 570.418753,39.6470588 568.729412,39.6470588 L568.729412,39.6470588 Z M568.729412,32 C565.670588,32 563.058353,33.9025882 562,36.5882353 C563.058353,39.2738824 565.670588,41.1764706 568.729412,41.1764706 C571.788235,41.1764706 574.400471,39.2738824 575.458824,36.5882353 C574.400471,33.9025882 571.788235,32 568.729412,32 L568.729412,32 Z" id="Shape-Copy" fill="#FFFFFF" sketch:type="MSShapeGroup"></path>
            <path d="M598.352941,41.6352941 C600.718019,41.6352941 602.635294,39.7180194 602.635294,37.3529412 C602.635294,34.987863 600.718019,33.0705882 598.352941,33.0705882 C595.987863,33.0705882 594.070588,34.987863 594.070588,37.3529412 C594.070588,39.7180194 595.987863,41.6352941 598.352941,41.6352941 L598.352941,41.6352941 Z M598.352941,32 C599.772629,32 601.134171,32.563969 602.138042,33.5678402 C603.141913,34.5717114 603.705882,35.9332529 603.705882,37.3529412 C603.705882,40.309289 601.309289,42.7058824 598.352941,42.7058824 C595.392765,42.7058824 593,40.2970588 593,37.3529412 C593,34.3965934 595.396593,32 598.352941,32 L598.352941,32 Z M598.620588,34.6764706 L598.620588,37.4867647 L601.029412,38.916 L600.627941,39.5744118 L597.817647,37.8882353 L597.817647,34.6764706 L598.620588,34.6764706 L598.620588,34.6764706 Z" id="Shape-Copy-4" fill="#FFFFFF" sketch:type="MSShapeGroup"></path>
            <path d="M636,43 C632.686292,43 630,40.3137085 630,37 C630,36 630.25,35.03 630.7,34.2 L629.24,32.74 C628.46,33.97 628,35.43 628,37 C628,41.418278 631.581722,45 636,45 L636,48 L640,44 L636,40 L636,43 Z M636,29 L636,26 L632,30 L636,34 L636,31 C639.313708,31 642,33.6862915 642,37 C642,38 641.75,38.97 641.3,39.8 L642.76,41.26 C643.54,40.03 644,38.57 644,37 C644,32.581722 640.418278,29 636,29 L636,29 Z" id="Shape-Copy-3" fill="#FFFFFF" sketch:type="MSShapeGroup"></path>
            <path d="M707.8688,34.6676 L689.2012,16 L688.0696,17.1312 L705.9376,34.9988 L669,34.9988 L669,36.5988 L705.9376,36.5988 L688.0696,54.4664 L689.2012,55.5976 L707.8688,36.93 L709,35.7988 L707.8688,34.6676 Z" id="Shape-Copy-10" fill="#54657E" sketch:type="MSShapeGroup" transform="translate(689.000000, 35.798800) rotate(-180.000000) translate(-689.000000, -35.798800) "></path>
            <path d="M707.8688,94.6676 L689.2012,76 L688.0696,77.1312 L705.9376,94.9988 L669,94.9988 L669,96.5988 L705.9376,96.5988 L688.0696,114.4664 L689.2012,115.5976 L707.8688,96.93 L709,95.7988 L707.8688,94.6676 Z" id="Shape-Copy-11" fill="#CB486F" sketch:type="MSShapeGroup" transform="translate(689.000000, 95.798800) rotate(-180.000000) translate(-689.000000, -95.798800) "></path>
            <path d="M767.8688,34.6676 L749.2012,16 L748.0696,17.1312 L765.9376,34.9988 L729,34.9988 L729,36.5988 L765.9376,36.5988 L748.0696,54.4664 L749.2012,55.5976 L767.8688,36.93 L769,35.7988 L767.8688,34.6676 Z" id="Shape-Copy-13" fill="#54657E" sketch:type="MSShapeGroup"></path>
            <path d="M767.8688,94.6676 L749.2012,76 L748.0696,77.1312 L765.9376,94.9988 L729,94.9988 L729,96.5988 L765.9376,96.5988 L748.0696,114.4664 L749.2012,115.5976 L767.8688,96.93 L769,95.7988 L767.8688,94.6676 Z" id="Shape-Copy-12" fill="#CB486F" sketch:type="MSShapeGroup"></path>
            <path d="M827,64 C813.77,64 803,53.23 803,40 C803,26.77 813.77,16 827,16 C840.23,16 851,26.77 851,40 C851,53.23 840.23,64 827,64 L827,64 Z M827,10 C810.431458,10 797,23.4314575 797,40 C797,56.5685425 810.431458,70 827,70 C834.956495,70 842.587112,66.8392948 848.213203,61.2132034 C853.839295,55.5871121 857,47.9564947 857,40 C857,23.41 843.5,10 827,10 L827,10 Z M821,53.5 L839,40 L821,26.5 L821,53.5 L821,53.5 Z" id="Shape-Copy-18" fill="#FFFFFF" sketch:type="MSShapeGroup"></path>
            <path d="M838,92.2157143 L835.784286,90 L827,98.7842857 L818.215714,90 L816,92.2157143 L824.784286,101 L816,109.784286 L818.215714,112 L827,103.215714 L835.784286,112 L838,109.784286 L829.215714,101 L838,92.2157143 L838,92.2157143 Z" id="Shape-Copy-19" stroke="#FFFFFF" fill="#FFFFFF" sketch:type="MSShapeGroup"></path>
            <path d="M918.777778,13 L918.777778,20.7777778 L932.738889,20.7777778 L894.511111,59.0055556 L899.994444,64.4888889 L938.222222,26.2611111 L938.222222,40.2222222 L946,40.2222222 L946,13 L918.777778,13 Z M938.222222,75.2222222 L883.777778,75.2222222 L883.777778,20.7777778 L911,20.7777778 L911,13 L883.777778,13 C879.461111,13 876,16.5 876,20.7777778 L876,75.2222222 C876,79.5177703 879.48223,83 883.777778,83 L938.222222,83 C942.51777,83 946,79.5177703 946,75.2222222 L946,48 L938.222222,48 L938.222222,75.2222222 L938.222222,75.2222222 Z" id="Shape-Copy-22" fill="#FFFFFF" sketch:type="MSShapeGroup"></path>
        </g>
    </g>
</svg>